Linear_Correlations
…
Creating table of correlations and removing redundancies

daily_trunc <- daily %>%
  select(-X, -date)

corr_table <- cor(daily_trunc) %>%
  as_tibble(rownames = "var1") %>%
    pivot_longer(cols = -var1, names_to = "var2", values_to = "coeff") %>%
    filter(var1 != var2) %>%
    arrange(desc(abs(coeff))) 

corr_table <- distinct(corr_table, coeff, .keep_all = TRUE)
corr_table

## # A tibble: 36 x 3
##    var1          var2             coeff
##    <chr>         <chr>            <dbl>
##  1 volume_used   water_level      0.999
##  2 energy_charge maximum_demand   0.958
##  3 effluent_flow poured_flow      0.845
##  4 effluent_flow energy_generated 0.786
##  5 effluent_flow influent_flow    0.767
##  6 influent_flow poured_flow      0.691
##  7 water_level   energy_stored    0.564
##  8 volume_used   energy_stored    0.563
##  9 influent_flow energy_generated 0.557
## 10 poured_flow   energy_generated 0.350
## #  with 26 more rows
…
